Desafio_Spike
…
## Rows: 1,192,124
## Columns: 5
## $ mnemotecnico_barra <chr> "BA01T002SE002T002", "BA01T002SE002T002", "BA01T...
## $ nombre_barra       <chr> "BA S/E ALTO JAHUEL 110KV SECCION 1", "BA S/E AL...
## $ fecha              <date> 2019-01-01, 2019-01-01, 2019-01-01, 2019-01-01,...
## $ hora               <dbl> 1, 2, 3, 4, 5, 6, 7, 8, 9, 10, 11, 12, 13, 14, 1...
## $ costo              <dbl> 49.89733, 50.47162, 50.07782, 49.79622, 49.79622...

## # A tibble: 0 x 7
## # Groups:   barra_mnemotecnico, barra_referencia_mnemotecnico, fecha, hora [0]
## # ... with 7 variables: barra_mnemotecnico <chr>,
## #   barra_referencia_mnemotecnico <chr>, fecha <date>, hora <dbl>,
## #   costo_en_dolares <dbl>, costo_en_pesos <dbl>, nombre <chr>

## # A tibble: 205,033 x 5
## # Groups:   mnemotecnico_barra, nombre_barra, fecha, hora [16,804]
##    mnemotecnico_barra nombre_barra fecha       hora costo
##    <chr>              <chr>        <date>     <dbl> <dbl>
##  1 -                  -            2019-01-01     1 134. 
##  2 -                  -            2019-01-01     2 134. 
##  3 -                  -            2019-01-01     3  56.2
##  4 -                  -            2019-01-01     4  57.4
##  5 -                  -            2019-01-01     5  56.1
##  6 -                  -            2019-01-01     6  57.4
##  7 -                  -            2019-01-01     7  57.4
##  8 -                  -            2019-01-01     8  63.5
##  9 -                  -            2019-01-01     9  54.3
## 10 -                  -            2019-01-01    10  50.9
## # ... with 205,023 more rows

## 
##      17 
## 4309951

## # A tibble: 239 x 2
##    nombre_barra                            n
##    <chr>                               <int>
##  1 -                                  180115
##  2 BA S/E 154KV B1                      3769
##  3 BA S/E A 100KV-BP1                   4345
##  4 BA S/E AGUA SANTA BARRA 110KV N 1   4345
##  5 BA S/E AGUA SANTA BARRA 220KV N 1   4345
##  6 BA S/E ALTO HOSPICIO 110KV           3769
##  7 BA S/E ALTO JAHUEL 110KV SECCION 1   4345
##  8 BA S/E ALTO JAHUEL 154KV             4345
##  9 BA S/E ALTO JAHUEL 220KV SECCION 1   4345
## 10 BA S/E ALTO JAHUEL 500KV SECCIN A   4345
## # ... with 229 more rows

## # A tibble: 239 x 2
##    mnemotecnico_barra      n
##    <chr>               <int>
##  1 -                  180115
##  2 BA01G004SE001T011    4345
##  3 BA01G004SE009G004    4345
##  4 BA01G004SE017G004    4345
##  5 BA01G004SE035G004    4345
##  6 BA01G004SE036G004    4345
##  7 BA01G006SE001G104    4345
##  8 BA01G006SE002G006    3769
##  9 BA01G010SE008G010    4345
## 10 BA01G021SE003G021    4345
## # ... with 229 more rows
…
5. Prediccin de desviaciones del costo marginal: modelo 1

Crea una variable target que sea igual a cero cuando la variable cmg_desv_pct est en el rango [-15,15], e igual uno para cualquier otro caso. Hint: recuerda que existen valores infinitos. Ahora crea los siguientes features: en_total_mwh: suma de las cinco series de generacin. lags y estadsticas acumuladas (por ejemplo: promedio, varianza) de las variables que consideres relevantes. Entrena un modelo que prediga si existir una desviacin en la hora siguiente. Adeca la variable target para hacer esto posible. Cmo le va a tu modelo? En qu mtricas te basas y por qu? Cuales son las variables ms importantes que considera este modelo?

## # A tibble: 112,779 x 2
##    target target2
##     <dbl>   <dbl>
##  1      0       0
##  2      0       0
##  3      0       1
##  4      1       1
##  5      1       1
##  6      1       1
##  7      1       1
##  8      1       0
##  9      0       0
## 10      0       0
## # ... with 112,769 more rows
…
